<svg height="480pt" viewBox="-104 0 480 480" width="480pt" xmlns="http://www.w3.org/2000/svg" xmlns:xlink="http://www.w3.org/1999/xlink">
<linearGradient id="a">

</linearGradient>
<linearGradient id="b" gradientUnits="userSpaceOnUse" x1="136" x2="136" xlink:href="#a" y1="477.848" y2="-48.696"/>
<linearGradient id="c" gradientUnits="userSpaceOnUse" x1="80" x2="80" xlink:href="#a" y1="477.848" y2="-48.696"/>
<linearGradient id="d" gradientUnits="userSpaceOnUse" x1="112" x2="112" xlink:href="#a" y1="477.848" y2="-48.696"/>
<linearGradient id="e" gradientUnits="userSpaceOnUse" x1="52" x2="52" xlink:href="#a" y1="477.848" y2="-48.696"/>
<path d="m232 0h-192c-22.082031.0273438-39.9726562 17.917969-40 40v400c.0273438 22.082031 17.917969 39.972656 40 40h192c22.082031-.027344 39.972656-17.917969 40-40v-400c-.027344-22.082031-17.917969-39.9726562-40-40zm0 464h-192c-13.253906 0-24-10.746094-24-24v-360h208v-16h-208v-24c0-13.253906 10.746094-24 24-24h192c13.253906 0 24 10.746094 24 24v344h-208v16h208v40c0 13.253906-10.746094 24-24 24zm0 0" fill="url(#b)"/>
<path d="m128 424h16v16h-16zm0 0" fill="url(#b)"/>
<path d="m72 32h16v16h-16zm0 0" fill="url(#c)"/>
<path d="m104 32h16v16h-16zm0 0" fill="url(#d)"/>
<path d="m48 112h24v-16h-32c-4.417969 0-8 3.582031-8 8v32h16zm0 0" fill="url(#e)"/>
<g fill="url(#b)">
<path d="m226.398438 205.601562c2.007812 2.082032 4.980468 2.917969 7.777343 2.191407 2.800781-.730469 4.984375-2.910157 5.722657-5.707031.734374-2.792969-.09375-5.769532-2.171876-7.78125-26.941406-27.0625-63.554687-42.273438-101.742187-42.273438s-74.800781 15.210938-101.746094 42.273438c-3.117187 3.136718-3.101562 8.207031.035157 11.328124 3.136718 3.117188 8.207031 3.105469 11.328124-.03125 23.941407-24.042968 56.46875-37.554687 90.398438-37.554687s66.457031 13.511719 90.398438 37.554687zm0 0"/>
<path d="m136 200c-25.464844-.042969-49.894531 10.066406-67.878906 28.089844-2.085938 2-2.925782 4.972656-2.203125 7.769531.722656 2.800781 2.902343 4.992187 5.695312 5.730469 2.796875.742187 5.773438-.085938 7.785157-2.15625 31.265624-31.246094 81.9375-31.246094 113.203124 0 2.011719 2.070312 4.988282 2.898437 7.785157 2.15625 2.792969-.738282 4.972656-2.929688 5.695312-5.730469.722657-2.796875-.117187-5.769531-2.203125-7.769531-17.984375-18.023438-42.414062-28.132813-67.878906-28.089844zm0 0"/>
<path d="m136 248c-12.722656-.019531-24.929688 5.015625-33.945312 13.992188-3.054688 3.121093-3.039063 8.113281.03125 11.21875 3.070312 3.105468 8.0625 3.175781 11.21875.15625 12.71875-12.078126 32.671874-12.078126 45.390624 0 2.023438 2.066406 5 2.878906 7.789063 2.132812 2.792969-.75 4.960937-2.945312 5.679687-5.742188.714844-2.800781-.132812-5.769531-2.21875-7.765624-9.015624-8.976563-21.222656-14.011719-33.945312-13.992188zm0 0"/>
<path d="m136 296c-13.253906 0-24 10.746094-24 24s10.746094 24 24 24 24-10.746094 24-24-10.746094-24-24-24zm0 32c-4.417969 0-8-3.582031-8-8s3.582031-8 8-8 8 3.582031 8 8-3.582031 8-8 8zm0 0"/>
</g>
</svg>